^C:\USERS\B7040498\SOURCE\REPOS\CPPPRACTICE\COURSEWORK2\COURSEWORK2\MAIN.CPP
C:\USERS\B7040498\SOURCE\REPOS\CPPPRACTICE\COURSEWORK2\COURSEWORK2\DEBUG\VC141.PDB
C:\USERS\B7040498\SOURCE\REPOS\CPPPRACTICE\COURSEWORK2\COURSEWORK2\DEBUG\VC141.IDB
C:\USERS\B7040498\SOURCE\REPOS\CPPPRACTICE\COURSEWORK2\COURSEWORK2\DEBUG\MAIN.OBJ
^C:\USERS\B7040498\SOURCE\REPOS\CPPPRACTICE\COURSEWORK2\COURSEWORK2\COM.CPP|C:\USERS\B7040498\SOURCE\REPOS\CPPPRACTICE\COURSEWORK2\COURSEWORK2\DIGCOM.CPP|C:\USERS\B7040498\SOURCE\REPOS\CPPPRACTICE\COURSEWORK2\COURSEWORK2\KEYOFLOCKS.CPP|C:\USERS\B7040498\SOURCE\REPOS\CPPPRACTICE\COURSEWORK2\COURSEWORK2\LOCK.CPP|C:\USERS\B7040498\SOURCE\REPOS\CPPPRACTICE\COURSEWORK2\COURSEWORK2\MAIN.CPP|C:\USERS\B7040498\SOURCE\REPOS\CPPPRACTICE\COURSEWORK2\COURSEWORK2\MOVCOM.CPP|C:\USERS\B7040498\SOURCE\REPOS\CPPPRACTICE\COURSEWORK2\COURSEWORK2\MULTILOCK.CPP
C:\USERS\B7040498\SOURCE\REPOS\CPPPRACTICE\COURSEWORK2\COURSEWORK2\DEBUG\VC141.PDB
C:\USERS\B7040498\SOURCE\REPOS\CPPPRACTICE\COURSEWORK2\COURSEWORK2\DEBUG\VC141.IDB
C:\USERS\B7040498\SOURCE\REPOS\CPPPRACTICE\COURSEWORK2\COURSEWORK2\DEBUG\COM.OBJ
C:\USERS\B7040498\SOURCE\REPOS\CPPPRACTICE\COURSEWORK2\COURSEWORK2\DEBUG\DIGCOM.OBJ
C:\USERS\B7040498\SOURCE\REPOS\CPPPRACTICE\COURSEWORK2\COURSEWORK2\DEBUG\KEYOFLOCKS.OBJ
C:\USERS\B7040498\SOURCE\REPOS\CPPPRACTICE\COURSEWORK2\COURSEWORK2\DEBUG\LOCK.OBJ
C:\USERS\B7040498\SOURCE\REPOS\CPPPRACTICE\COURSEWORK2\COURSEWORK2\DEBUG\MAIN.OBJ
C:\USERS\B7040498\SOURCE\REPOS\CPPPRACTICE\COURSEWORK2\COURSEWORK2\DEBUG\MOVCOM.OBJ
C:\USERS\B7040498\SOURCE\REPOS\CPPPRACTICE\COURSEWORK2\COURSEWORK2\DEBUG\MULTILOCK.OBJ
^C:\USERS\B7040498\SOURCE\REPOS\CPPPRACTICE\COURSEWORK2\COURSEWORK2\COM.CPP
C:\USERS\B7040498\SOURCE\REPOS\CPPPRACTICE\COURSEWORK2\COURSEWORK2\DEBUG\VC141.PDB
^C:\USERS\B7040498\SOURCE\REPOS\CPPPRACTICE\COURSEWORK2\COURSEWORK2\DIGCOM.CPP
C:\USERS\B7040498\SOURCE\REPOS\CPPPRACTICE\COURSEWORK2\COURSEWORK2\DEBUG\VC141.PDB
C:\USERS\B7040498\SOURCE\REPOS\CPPPRACTICE\COURSEWORK2\COURSEWORK2\DEBUG\VC141.IDB
^C:\USERS\B7040498\SOURCE\REPOS\CPPPRACTICE\COURSEWORK2\COURSEWORK2\KEYOFLOCKS.CPP
C:\USERS\B7040498\SOURCE\REPOS\CPPPRACTICE\COURSEWORK2\COURSEWORK2\DEBUG\VC141.PDB
^C:\USERS\B7040498\SOURCE\REPOS\CPPPRACTICE\COURSEWORK2\COURSEWORK2\LOCK.CPP
C:\USERS\B7040498\SOURCE\REPOS\CPPPRACTICE\COURSEWORK2\COURSEWORK2\DEBUG\VC141.PDB
^C:\USERS\B7040498\SOURCE\REPOS\CPPPRACTICE\COURSEWORK2\COURSEWORK2\MOVCOM.CPP
C:\USERS\B7040498\SOURCE\REPOS\CPPPRACTICE\COURSEWORK2\COURSEWORK2\DEBUG\VC141.PDB
C:\USERS\B7040498\SOURCE\REPOS\CPPPRACTICE\COURSEWORK2\COURSEWORK2\DEBUG\VC141.IDB
^C:\USERS\B7040498\SOURCE\REPOS\CPPPRACTICE\COURSEWORK2\COURSEWORK2\MULTILOCK.CPP
C:\USERS\B7040498\SOURCE\REPOS\CPPPRACTICE\COURSEWORK2\COURSEWORK2\DEBUG\VC141.PDB
C:\USERS\B7040498\SOURCE\REPOS\CPPPRACTICE\COURSEWORK2\COURSEWORK2\DEBUG\VC141.IDB
^C:\USERS\B7040498\SOURCE\REPOS\CPPPRACTICE\COURSEWORK2\COURSEWORK2\DIGCOM.CPP|C:\USERS\B7040498\SOURCE\REPOS\CPPPRACTICE\COURSEWORK2\COURSEWORK2\KEYOFLOCKS.CPP|C:\USERS\B7040498\SOURCE\REPOS\CPPPRACTICE\COURSEWORK2\COURSEWORK2\LOCK.CPP|C:\USERS\B7040498\SOURCE\REPOS\CPPPRACTICE\COURSEWORK2\COURSEWORK2\MAIN.CPP|C:\USERS\B7040498\SOURCE\REPOS\CPPPRACTICE\COURSEWORK2\COURSEWORK2\MULTILOCK.CPP
C:\USERS\B7040498\SOURCE\REPOS\CPPPRACTICE\COURSEWORK2\COURSEWORK2\DEBUG\VC141.PDB
C:\USERS\B7040498\SOURCE\REPOS\CPPPRACTICE\COURSEWORK2\COURSEWORK2\DEBUG\VC141.IDB
C:\USERS\B7040498\SOURCE\REPOS\CPPPRACTICE\COURSEWORK2\COURSEWORK2\DEBUG\DIGCOM.OBJ
C:\USERS\B7040498\SOURCE\REPOS\CPPPRACTICE\COURSEWORK2\COURSEWORK2\DEBUG\MAIN.OBJ
C:\USERS\B7040498\SOURCE\REPOS\CPPPRACTICE\COURSEWORK2\COURSEWORK2\DEBUG\KEYOFLOCKS.OBJ
C:\USERS\B7040498\SOURCE\REPOS\CPPPRACTICE\COURSEWORK2\COURSEWORK2\DEBUG\LOCK.OBJ
C:\USERS\B7040498\SOURCE\REPOS\CPPPRACTICE\COURSEWORK2\COURSEWORK2\DEBUG\MULTILOCK.OBJ
^C:\USERS\B7040498\SOURCE\REPOS\CPPPRACTICE\COURSEWORK2\COURSEWORK2\LOCK.CPP|C:\USERS\B7040498\SOURCE\REPOS\CPPPRACTICE\COURSEWORK2\COURSEWORK2\MAIN.CPP|C:\USERS\B7040498\SOURCE\REPOS\CPPPRACTICE\COURSEWORK2\COURSEWORK2\MULTILOCK.CPP
C:\USERS\B7040498\SOURCE\REPOS\CPPPRACTICE\COURSEWORK2\COURSEWORK2\DEBUG\VC141.PDB
C:\USERS\B7040498\SOURCE\REPOS\CPPPRACTICE\COURSEWORK2\COURSEWORK2\DEBUG\VC141.IDB
C:\USERS\B7040498\SOURCE\REPOS\CPPPRACTICE\COURSEWORK2\COURSEWORK2\DEBUG\LOCK.OBJ
C:\USERS\B7040498\SOURCE\REPOS\CPPPRACTICE\COURSEWORK2\COURSEWORK2\DEBUG\MULTILOCK.OBJ
^C:\USERS\B7040498\SOURCE\REPOS\CPPPRACTICE\COURSEWORK2\COURSEWORK2\DIGCOM.CPP|C:\USERS\B7040498\SOURCE\REPOS\CPPPRACTICE\COURSEWORK2\COURSEWORK2\KEYOFLOCKS.CPP|C:\USERS\B7040498\SOURCE\REPOS\CPPPRACTICE\COURSEWORK2\COURSEWORK2\LOCK.CPP|C:\USERS\B7040498\SOURCE\REPOS\CPPPRACTICE\COURSEWORK2\COURSEWORK2\MAIN.CPP|C:\USERS\B7040498\SOURCE\REPOS\CPPPRACTICE\COURSEWORK2\COURSEWORK2\MOVCOM.CPP|C:\USERS\B7040498\SOURCE\REPOS\CPPPRACTICE\COURSEWORK2\COURSEWORK2\MULTILOCK.CPP
C:\USERS\B7040498\SOURCE\REPOS\CPPPRACTICE\COURSEWORK2\COURSEWORK2\DEBUG\VC141.PDB
C:\USERS\B7040498\SOURCE\REPOS\CPPPRACTICE\COURSEWORK2\COURSEWORK2\DEBUG\VC141.IDB
C:\USERS\B7040498\SOURCE\REPOS\CPPPRACTICE\COURSEWORK2\COURSEWORK2\DEBUG\DIGCOM.OBJ
C:\USERS\B7040498\SOURCE\REPOS\CPPPRACTICE\COURSEWORK2\COURSEWORK2\DEBUG\KEYOFLOCKS.OBJ
C:\USERS\B7040498\SOURCE\REPOS\CPPPRACTICE\COURSEWORK2\COURSEWORK2\DEBUG\LOCK.OBJ
C:\USERS\B7040498\SOURCE\REPOS\CPPPRACTICE\COURSEWORK2\COURSEWORK2\DEBUG\MOVCOM.OBJ
^C:\USERS\B7040498\SOURCE\REPOS\CPPPRACTICE\COURSEWORK2\COURSEWORK2\COM.CPP|C:\USERS\B7040498\SOURCE\REPOS\CPPPRACTICE\COURSEWORK2\COURSEWORK2\MAIN.CPP
C:\USERS\B7040498\SOURCE\REPOS\CPPPRACTICE\COURSEWORK2\COURSEWORK2\DEBUG\VC141.PDB
C:\USERS\B7040498\SOURCE\REPOS\CPPPRACTICE\COURSEWORK2\COURSEWORK2\DEBUG\VC141.IDB
C:\USERS\B7040498\SOURCE\REPOS\CPPPRACTICE\COURSEWORK2\COURSEWORK2\DEBUG\COM.OBJ
C:\USERS\B7040498\SOURCE\REPOS\CPPPRACTICE\COURSEWORK2\COURSEWORK2\DEBUG\MAIN.OBJ
^C:\USERS\B7040498\SOURCE\REPOS\CPPPRACTICE\COURSEWORK2\COURSEWORK2\MAIN.CPP|C:\USERS\B7040498\SOURCE\REPOS\CPPPRACTICE\COURSEWORK2\COURSEWORK2\MULTILOCK.CPP
C:\USERS\B7040498\SOURCE\REPOS\CPPPRACTICE\COURSEWORK2\COURSEWORK2\DEBUG\VC141.PDB
C:\USERS\B7040498\SOURCE\REPOS\CPPPRACTICE\COURSEWORK2\COURSEWORK2\DEBUG\VC141.IDB
C:\USERS\B7040498\SOURCE\REPOS\CPPPRACTICE\COURSEWORK2\COURSEWORK2\DEBUG\MULTILOCK.OBJ
C:\USERS\B7040498\SOURCE\REPOS\CPPPRACTICE\COURSEWORK2\COURSEWORK2\DEBUG\MAIN.OBJ
